2017-11-27 16:41:06 DEBUG DAOLauncher:19 - Starting main method.
2017-11-27 16:41:06 DEBUG RequestStatusJDBC:20 - Finding status of id 1
2017-11-27 16:41:22 DEBUG DAOLauncher:19 - Starting main method.
2017-11-27 16:41:22 DEBUG RequestStatusJDBC:20 - Finding status of id 2
2017-11-27 16:42:18 DEBUG DAOLauncher:19 - Starting main method.
2017-11-27 16:42:18 DEBUG RequestStatusJDBC:20 - Finding status of id 2
2017-11-27 16:42:20 WARN  RequestStatusJDBC:35 - Failed to aquire user from database.
2017-11-27 21:07:06 DEBUG DAOLauncher:19 - Starting main method.
2017-11-27 21:07:06 DEBUG UserJDBC:132 - Finding full name with user id 1
2017-11-27 21:07:48 DEBUG DAOLauncher:19 - Starting main method.
2017-11-27 21:07:48 DEBUG UserJDBC:48 - Finding user with username mwest13
2017-11-27 21:07:50 DEBUG RequestJDBC:42 - Attempting to retrieve all requests from user with ID of: 1.
2017-11-27 21:07:51 DEBUG RequestJDBC:23 - Getting reimbursement request from result set.
2017-11-27 21:07:51 DEBUG RequestJDBC:23 - Getting reimbursement request from result set.
